[
  {
    "fieldBase": {
      "areaName": "TZ01",
      "bay": "001",
      "row": "001",
      "tier": "01",
      "x": 10000,
      "y": 27540,
      "width": 6458,
      "length": 2840,
      "rotationAngle": 0,
      "fieldType": "TtransferField"
    },
    "zoneType": "sideloading",
    "isBlocked": false
  },
  {
    "fieldBase": {
      "areaName": "TZ01",
      "bay": "003",
      "row": "001",
      "tier": "01",
      "x": 16458,
      "y": 27540,
      "width": 6458,
      "length": 2840,
      "rotationAngle": 0,
      "fieldType": "TtransferField"
    },
    "zoneType": "sideloading",
    "isBlocked": false
  },
  {
    "fieldBase": {
      "areaName": "TZ01",
      "bay": "005",
      "row": "001",
      "tier": "01",
      "x": 22916,
      "y": 27540,
      "width": 6458,
      "length": 2840,
      "rotationAngle": 0,
      "fieldType": "TtransferField"
    },
    "zoneType": "sideloading",
    "isBlocked": false
  },
  {
    "fieldBase": {
      "areaName": "TZ01",
      "bay": "007",
      "row": "001",
      "tier": "01",
      "x": 29374,
      "y": 27540,
      "width": 6458,
      "length": 2840,
      "rotationAngle": 0,
      "fieldType": "TtransferField"
    },
    "zoneType": "sideloading",
    "isBlocked": false
  },
  {
    "fieldBase": {
      "areaName": "TZ01",
      "bay": "009",
      "row": "001",
      "tier": "01",
      "x": 35832,
      "y": 27540,
      "width": 6458,
      "length": 2840,
      "rotationAngle": 0,
      "fieldType": "TtransferField"
    },
    "zoneType": "sideloading",
    "isBlocked": false
  },
  {
    "fieldBase": {
      "areaName": "TZ01",
      "bay": "011",
      "row": "001",
      "tier": "01",
      "x": 42290,
      "y": 27540,
      "width": 6458,
      "length": 2840,
      "rotationAngle": 0,
      "fieldType": "TtransferField"
    },
    "zoneType": "sideloading",
    "isBlocked": false
  },
  {
    "fieldBase": {
      "areaName": "TZ01",
      "bay": "013",
      "row": "001",
      "tier": "01",
      "x": 48748,
      "y": 27540,
      "width": 6458,
      "length": 2840,
      "rotationAngle": 0,
      "fieldType": "TtransferField"
    },
    "zoneType": "sideloading",
    "isBlocked": false
  },
  {
    "fieldBase": {
      "areaName": "TZ01",
      "bay": "015",
      "row": "001",
      "tier": "01",
      "x": 55206,
      "y": 27540,
      "width": 6458,
      "length": 2840,
      "rotationAngle": 0,
      "fieldType": "TtransferField"
    },
    "zoneType": "sideloading",
    "isBlocked": false
  }
]