[
    {
        "fieldtype": "containerBlockComposite",
        "areaname": "BL01",
        "stackingareanames": [
            "BA01"
        ],
        "transferzonenames": [
            "TZ01"
        ],
        "stackingcraneids": [
            "RTG001",
            "RTG002"
        ],
        "maxSATierCount": 5,
        "maxTZTierCount": 1
    }
]