[
  {
    "servicetype": "ht",
    "serviceid": "htsimsrv",
    "resourceserviceversion": "undefined",
    "statusinterval": 1000,
    "arrivingTzTime": 5,
    "enteringTzTime": 5,
    "leavingTzTime": 9,
    "maxWaitOnReservation": 500,
    "maxWaitOnService": 500
  }
]
