[
  {
    "resourcetype": "RTG",
    "resourceid": "RTG001",
    "assignedblock": "BL01",
    "cranemainaxesoffsets": {
      "x": 10000,
      "y": 10000
    },
    "cranemainaxesposition": {
      "gantryposition": 3229,
      "trolleyposition": 4260,
      "hoistposition": 22500
    },
    "scranenominalspeeds": {
      "gantryspeedabsolute": 90,
      "trolleyspeedabsolute": 60,
      "hoistspeedabsolute": 120
    },
    "cranedimensions": {
      "gantry": {
        "width": 800,
        "length": 20600,
        "depth": 24000
      },
      "trolley": {
        "width": 1200,
        "length": 2500,
        "depth": 200
      },
      "hoist": {
        "width": 5500,
        "length": 1500,
        "depth": 200
      }
    },
    "rotationangle": 0
  },
  {
    "resourcetype": "RTG",
    "resourceid": "RTG002",
    "assignedblock": "BL01",
    "cranemainaxesoffsets": {
      "x": 10000,
      "y": 10000
    },
    "cranemainaxesposition": {
      "gantryposition": 32290,
      "trolleyposition": 18960,
      "hoistposition": 6095
    },
    "scranenominalspeeds": {
      "gantryspeedabsolute": 90,
      "trolleyspeedabsolute": 60,
      "hoistspeedabsolute": 120
    },
    "cranedimensions": {
      "gantry": {
        "width": 800,
        "length": 20600,
        "depth": 24000
      },
      "trolley": {
        "width": 1200,
        "length": 2500,
        "depth": 200
      },
      "hoist": {
        "width": 5500,
        "length": 1500,
        "depth": 200
      }
    },
    "rotationangle": 0
  }
]
